{
  "events": [
    {
      "id": 1,
      "title": "Beach Cleanup",
      "date": "Aug 28 2018",
      "time": "10:00",
      "location": "Daytona Beach",
      "description": "Let's clean up this beach.",
      "organizer": "Adam Jahr",
      "category": "sustainability",
      "attendees": [
        {
          "id": "abc123",
          "name": "Adam Jahr"
        },
        {
          "id": "def456",
          "name": "Gregg Pollack"
        },
        {
          "id": "ghi789",
          "name": "Beth Swanson"
        },
        {
          "id": "jkl101",
          "name": "Mary Gordon"
        }
      ]
    },
    {
      "id": 2,
      "title": "Park Cleanup",
      "date": "Nov 12 2018",
      "time": "12:00",
      "location": "132 N Magnolia Street, Orlando, Florida",
      "description": "We're going to clean up this park.",
      "organizer": "Adam Jahr",
      "category": "nature",
      "attendees": [
        {
          "id": "ghi789",
          "name": "Beth Swanson"
        },
        {
          "id": "jkl101",
          "name": "Mary Gordon"
        }
      ]
    },
    {
      "id": 3,
      "title": "Pet Adoption Day",
      "date": "Dec 2 2018",
      "time": "12:00",
      "location": "132 N Magnolia Street, Orlando, Florida",
      "description": "Help animals find new homes.",
      "organizer": "Gregg Pollack",
      "category": "animal welfare",
      "attendees": [
        {
          "id": "abc123",
          "name": "Adam Jahr"
        },
        {
          "id": "ghi789",
          "name": "Beth Swanson"
        },
        {
          "id": "jkl101",
          "name": "Mary Gordon"
        }
      ]
    },
    {
      "id": 4,
      "title": "Disco Party",
      "date": "Aug 28 2018",
      "time": "10:00",
      "location": "Daytona Beach",
      "description": "Let's clean up this beach.",
      "organizer": "Adam Jahr",
      "category": "sustainability",
      "attendees": [
        {
          "id": "abc123",
          "name": "Adam Jahr"
        },
        {
          "id": "def456",
          "name": "Gregg Pollack"
        },
        {
          "id": "ghi789",
          "name": "Beth Swanson"
        },
        {
          "id": "jkl101",
          "name": "Mary Gordon"
        }
      ]
    },
    {
      "id": 5,
      "title": "Vue Users Group",
      "date": "Nov 12 2018",
      "time": "12:00",
      "location": "132 N Magnolia Street, Orlando, Florida",
      "description": "We're going to clean up this park.",
      "organizer": "Adam Jahr",
      "category": "nature",
      "attendees": [
        {
          "id": "ghi789",
          "name": "Beth Swanson"
        },
        {
          "id": "jkl101",
          "name": "Mary Gordon"
        }
      ]
    },
    {
      "id": 6,
      "title": "Orlando Dev Meetup",
      "date": "Dec 2 2018",
      "time": "12:00",
      "location": "132 N Magnolia Street, Orlando, Florida",
      "description": "Help animals find new homes.",
      "organizer": "Gregg Pollack",
      "category": "animal welfare",
      "attendees": [
        {
          "id": "abc123",
          "name": "Adam Jahr"
        },
        {
          "id": "ghi789",
          "name": "Beth Swanson"
        },
        {
          "id": "jkl101",
          "name": "Mary Gordon"
        }
      ]
    },
    {
      "id": 7,
      "title": "Yoga Class",
      "date": "Aug 28 2018",
      "time": "10:00",
      "location": "Daytona Beach",
      "description": "Let's clean up this beach.",
      "organizer": "Adam Jahr",
      "category": "sustainability",
      "attendees": [
        {
          "id": "abc123",
          "name": "Adam Jahr"
        },
        {
          "id": "def456",
          "name": "Gregg Pollack"
        },
        {
          "id": "ghi789",
          "name": "Beth Swanson"
        },
        {
          "id": "jkl101",
          "name": "Mary Gordon"
        }
      ]
    },
    {
      "id": 8,
      "title": "Breathing Meditation",
      "date": "Nov 12 2018",
      "time": "12:00",
      "location": "132 N Magnolia Street, Orlando, Florida",
      "description": "We're going to clean up this park.",
      "organizer": "Adam Jahr",
      "category": "nature",
      "attendees": [
        {
          "id": "ghi789",
          "name": "Beth Swanson"
        },
        {
          "id": "jkl101",
          "name": "Mary Gordon"
        }
      ]
    },
    {
      "id": 9,
      "title": "Dancing Class",
      "date": "Dec 2 2018",
      "time": "12:00",
      "location": "132 N Magnolia Street, Orlando, Florida",
      "description": "Help animals find new homes.",
      "organizer": "Gregg Pollack",
      "category": "animal welfare",
      "attendees": [
        {
          "id": "abc123",
          "name": "Adam Jahr"
        },
        {
          "id": "ghi789",
          "name": "Beth Swanson"
        },
        {
          "id": "jkl101",
          "name": "Mary Gordon"
        }
      ]
    },
    {
      "id": 10,
      "category": "animal welfare",
      "organizer": {
        "user": {
          "id": "abc123",
          "name": "Adam Jahr"
        }
      },
      "title": "Gregg's Event",
      "description": "We'll do stuff",
      "location": "Your House",
      "date": "",
      "time": "5:00",
      "attendees": []
    },
    {
      "id": 8277993,
      "category": "sustainability",
      "organizer": {
        "id": "abc123",
        "name": "Dikki"
      },
      "title": "linux",
      "description": "linux",
      "location": "tasikmalaya",
      "date": "2020-04-02T05:35:00.000Z",
      "time": "10:00",
      "attendees": []
    },
    {
      "id": 9443984,
      "category": "nature",
      "organizer": {
        "id": "abc123",
        "name": "Dikki"
      },
      "title": "linux",
      "description": "torvals",
      "location": "america",
      "date": "2020-04-08T05:37:00.000Z",
      "time": "10:00",
      "attendees": []
    },
    {
      "id": 4113334,
      "category": "nature",
      "organizer": {
        "id": "abc123",
        "name": "Dikki"
      },
      "title": "beach party",
      "description": "parties",
      "location": "banten beach",
      "date": "2020-04-30T06:04:00.000Z",
      "time": "9:00",
      "attendees": []
    },
    {
      "id": 1452857,
      "category": "nature",
      "organizer": {
        "id": "abc123",
        "name": "Dikki"
      },
      "title": "asd",
      "description": "asd",
      "location": "as",
      "date": "",
      "time": "",
      "attendees": []
    },
    {
      "id": 8588733,
      "user": {
        "id": "abc123",
        "name": "Adam"
      },
      "category": "nature",
      "organizer": {
        "id": "abc123",
        "name": "Adam"
      },
      "title": "sfs",
      "description": "fa",
      "location": "sdfss",
      "date": "2020-04-02T06:16:00.000Z",
      "time": "11:00",
      "attendees": []
    },
    {
      "id": 4785381,
      "category": "",
      "organizer": {
        "id": "abc123",
        "name": "Dikki"
      },
      "title": "sdfda",
      "description": "",
      "location": "",
      "date": "",
      "time": "",
      "attendees": []
    },
    {
      "id": 9422530,
      "category": "education",
      "organizer": {
        "id": "abc123",
        "name": "Dikki"
      },
      "title": "ddd",
      "description": "",
      "location": "",
      "date": "",
      "time": "",
      "attendees": []
    },
    {
      "id": 7172660,
      "category": "nature",
      "organizer": {
        "id": "abc123",
        "name": "Dikki"
      },
      "title": "ghhgghghghgh",
      "description": "",
      "location": "",
      "date": "",
      "time": "",
      "attendees": []
    },
    {
      "id": 5954758,
      "category": "sustainability",
      "organizer": {
        "id": "abc123",
        "name": "Dikki"
      },
      "title": "dsfsdf",
      "description": "",
      "location": "",
      "date": "",
      "time": "",
      "attendees": []
    },
    {
      "id": 4741261,
      "category": "nature",
      "organizer": {
        "id": "abc123",
        "name": "Dikki"
      },
      "title": "dsfs",
      "description": "",
      "location": "",
      "date": "",
      "time": "",
      "attendees": []
    },
    {
      "id": 2013944,
      "category": "sustainability",
      "organizer": {
        "id": "abc123",
        "name": "Dikki"
      },
      "title": "beach",
      "description": "beach ",
      "location": "indonesia",
      "date": "",
      "time": "",
      "attendees": []
    },
    {
      "id": 3670421,
      "category": "education",
      "organizer": {
        "id": "abc123",
        "name": "Dikki"
      },
      "title": "",
      "description": "",
      "location": "",
      "date": "2020-05-06T19:48:00.000Z",
      "time": "",
      "attendees": []
    },
    {
      "id": 1116650,
      "category": "sustainability",
      "organizer": {
        "id": "abc123",
        "name": "Dikki"
      },
      "title": "Teach",
      "description": "Teach it",
      "location": "beach palm",
      "date": "2020-05-08T21:05:00.000Z",
      "time": "17:00",
      "attendees": []
    },
    {
      "id": 1384300,
      "category": "",
      "organizer": {
        "id": "abc123",
        "name": "Dikki"
      },
      "title": "",
      "description": "",
      "location": "",
      "date": "",
      "time": "",
      "attendees": []
    },
    {
      "id": 1250842,
      "category": "food",
      "organizer": {
        "id": "abc123",
        "name": "Dikki"
      },
      "title": "d",
      "description": "a",
      "location": "d",
      "date": "2020-05-06T00:00:00.000Z",
      "time": "17:00",
      "attendees": []
    }
  ]
}
